IC3/PED/VHDL/Ejercicio1/bp_arch_fun1.vcd
$date
  Tue Apr 16 18:53:14 2019
$end
$version
  GHDL v0
$end
$timescale
  1 fs
$end
$scope module standard $end
$upscope $end
$scope module std_logic_1164 $end
$upscope $end
$scope module numeric_std $end
$upscope $end
$scope module bp_arch_fun1 $end
$var reg 1 ! f $end
$var reg 1 " g $end
$var reg 1 # a $end
$var reg 1 $ b $end
$var reg 1 % c $end
$scope module uut $end
$var reg 1 & f $end
$var reg 1 ' g $end
$var reg 1 ( a $end
$var reg 1 ) b $end
$var reg 1 * c $end
$var reg 1 + nota $end
$var reg 1 , notb $end
$var reg 1 - nota_or_notb $end
$scope module n1 $end
$var reg 1 . y0 $end
$var reg 1 / x0 $end
$upscope $end
$scope module n2 $end
$var reg 1 0 y0 $end
$var reg 1 1 x0 $end
$upscope $end
$scope module o1 $end
$var reg 1 2 y0 $end
$var reg 1 3 x0 $end
$var reg 1 4 x1 $end
$upscope $end
$scope module o2 $end
$var reg 1 5 y0 $end
$var reg 1 6 x0 $end
$var reg 1 7 x1 $end
$upscope $end
$scope module a1 $end
$var reg 1 8 y0 $end
$var reg 1 9 x0 $end
$var reg 1 : x1 $end
$upscope $end
$upscope $end
$upscope $end
$enddefinitions $end
#0
0!
0"
0#
0$
0%
0&
0'
0(
0)
0*
1+
1,
1-
1.
0/
10
01
12
13
14
05
06
07
08
09
1:
#100000000
1"
1%
1'
1*
18
19
#200000000
1!
0"
1$
0%
1&
0'
1)
0*
0,
00
11
04
15
17
08
09
#300000000
1"
1%
1'
1*
18
19
#400000000
0"
1#
0$
0%
0'
1(
0)
0*
0+
1,
0.
1/
10
01
03
14
16
07
08
09
#500000000
1"
1%
1'
1*
18
19
#600000000
0"
1$
0%
0'
1)
0*
0,
0-
00
11
02
04
17
08
09
0:
#700000000
1%
1*
19
