IC3/PED/VHDL/Ejercicio2/bp_arch_fun2.vcd
$date
  Mon Apr 15 22:46:57 2019
$end
$version
  GHDL v0
$end
$timescale
  1 fs
$end
$scope module standard $end
$upscope $end
$scope module std_logic_1164 $end
$upscope $end
$scope module numeric_std $end
$upscope $end
$scope module bp_arch_fun2 $end
$var reg 1 ! f28 $end
$var reg 1 " f29 $end
$var reg 1 # f30 $end
$var reg 1 $ f31 $end
$var reg 1 % a $end
$var reg 1 & b $end
$var reg 1 ' c $end
$var reg 1 ( d $end
$var reg 1 ) e $end
$scope module uut $end
$var reg 1 * f28 $end
$var reg 1 + f29 $end
$var reg 1 , f30 $end
$var reg 1 - f31 $end
$var reg 1 . a $end
$var reg 1 / b $end
$var reg 1 0 c $end
$var reg 1 1 d $end
$var reg 1 2 e $end
$var reg 1 3 nota $end
$var reg 1 4 notb $end
$var reg 1 5 notd $end
$var reg 1 6 not_e $end
$var reg 1 7 nota_notd $end
$var reg 1 8 nota_notb_notd $end
$var reg 1 9 nota_b_notd $end
$var reg 1 : ad $end
$scope module n1 $end
$var reg 1 ; y0 $end
$var reg 1 < x0 $end
$upscope $end
$scope module n2 $end
$var reg 1 = y0 $end
$var reg 1 > x0 $end
$upscope $end
$scope module n3 $end
$var reg 1 ? y0 $end
$var reg 1 @ x0 $end
$upscope $end
$scope module n4 $end
$var reg 1 A y0 $end
$var reg 1 B x0 $end
$upscope $end
$scope module a1 $end
$var reg 1 C y0 $end
$var reg 1 D x0 $end
$var reg 1 E x1 $end
$upscope $end
$scope module a2 $end
$var reg 1 F y0 $end
$var reg 1 G x0 $end
$var reg 1 H x1 $end
$upscope $end
$scope module a3 $end
$var reg 1 I y0 $end
$var reg 1 J x0 $end
$var reg 1 K x1 $end
$upscope $end
$scope module a4 $end
$var reg 1 L y0 $end
$var reg 1 M x0 $end
$var reg 1 N x1 $end
$upscope $end
$scope module a5 $end
$var reg 1 O y0 $end
$var reg 1 P x0 $end
$var reg 1 Q x1 $end
$upscope $end
$scope module a6 $end
$var reg 1 R y0 $end
$var reg 1 S x0 $end
$var reg 1 T x1 $end
$upscope $end
$scope module o1 $end
$var reg 1 U y0 $end
$var reg 1 V x0 $end
$var reg 1 W x1 $end
$upscope $end
$scope module x1 $end
$var reg 1 X y0 $end
$var reg 1 Y x0 $end
$var reg 1 Z x1 $end
$upscope $end
$upscope $end
$upscope $end
$enddefinitions $end
#0
0!
0"
0#
1$
0%
0&
0'
1(
0)
0*
0+
0,
1-
0.
0/
00
11
02
13
14
05
16
07
08
09
0:
1;
0<
1=
0>
0?
1@
1A
0B
0C
1D
0E
0F
1G
0H
0I
0J
0K
0L
0M
1N
0O
1P
0Q
0R
0S
0T
0U
0V
0W
1X
0Y
1Z
#100000000
1!
0$
1'
0(
1*
0-
10
01
15
17
18
1?
0@
1C
1E
1F
1H
1J
0N
1O
1Q
1T
0X
0Z
#200000000
0!
1$
1(
0*
1-
11
05
07
08
0?
1@
0C
0E
0F
0H
0J
1N
0O
0Q
0T
1X
1Z
#300000000
1#
0$
1&
0'
0(
1,
0-
1/
00
01
04
15
17
19
0=
1>
1?
0@
1C
1E
0G
1H
1I
1J
1K
0N
1U
1W
0X
0Z
#400000000
0#
1$
1(
0,
1-
11
05
07
09
0?
1@
0C
0E
0H
0I
0J
1N
0U
0W
1X
1Z
#500000000
1#
0$
1'
0(
1,
0-
10
01
15
17
19
1?
0@
1C
1E
1H
1I
1J
0N
1U
1W
0X
0Z
#600000000
0#
1$
1(
0,
1-
11
05
07
09
0?
1@
0C
0E
0H
0I
0J
1N
0U
0W
1X
1Z
#700000000
1%
0&
0'
0(
1.
0/
00
01
03
14
15
0;
1<
1=
0>
1?
0@
0D
1E
1G
0K
1M
0N
1Y
0Z
#800000000
1#
0$
1(
1,
0-
11
05
1:
0?
1@
0E
1L
1N
1U
1V
0X
1Z
#900000000
0#
1$
1'
0(
0,
1-
10
01
15
0:
1?
0@
1E
0L
0N
0U
0V
1X
0Z
#1000000000
1#
0$
1(
1,
0-
11
05
1:
0?
1@
0E
1L
1N
1U
1V
0X
1Z
#1100000000
0#
1$
1&
0'
0(
0,
1-
1/
00
01
04
15
0:
0=
1>
1?
0@
1E
0G
1K
0L
0N
0U
0V
1X
0Z
#1200000000
0%
0&
1(
1)
0.
0/
11
12
13
14
05
06
1;
0<
1=
0>
0?
1@
0A
1B
1D
0E
1G
0K
0M
1N
0P
1S
0Y
1Z
#1300000000
1"
0$
1'
0(
1+
0-
10
01
15
17
18
1?
0@
1C
1E
1F
1H
1J
0N
1Q
1R
1T
0X
0Z
#1400000000
0"
1$
1(
0+
1-
11
05
07
08
0?
1@
0C
0E
0F
0H
0J
1N
0Q
0R
0T
1X
1Z
#1500000000
1#
0$
1&
0'
0(
1,
0-
1/
00
01
04
15
17
19
0=
1>
1?
0@
1C
1E
0G
1H
1I
1J
1K
0N
1U
1W
0X
0Z
#1600000000
0#
1$
1(
0,
1-
11
05
07
09
0?
1@
0C
0E
0H
0I
0J
1N
0U
0W
1X
1Z
#1700000000
1#
0$
1'
0(
1,
0-
10
01
15
17
19
1?
0@
1C
1E
1H
1I
1J
0N
1U
1W
0X
0Z
#1800000000
0#
1$
1(
0,
1-
11
05
07
09
0?
1@
0C
0E
0H
0I
0J
1N
0U
0W
1X
1Z
#1900000000
1%
0&
0'
0(
1.
0/
00
01
03
14
15
0;
1<
1=
0>
1?
0@
0D
1E
1G
0K
1M
0N
1Y
0Z
#2000000000
1#
0$
1(
1,
0-
11
05
1:
0?
1@
0E
1L
1N
1U
1V
0X
1Z
#2100000000
0#
1$
1'
0(
0,
1-
10
01
15
0:
1?
0@
1E
0L
0N
0U
0V
1X
0Z
#2200000000
1#
0$
1(
1,
0-
11
05
1:
0?
1@
0E
1L
1N
1U
1V
0X
1Z
#2300000000
0#
1$
1&
0'
0(
0,
1-
1/
00
01
04
15
0:
0=
1>
1?
0@
1E
0G
1K
0L
0N
0U
0V
1X
0Z
